<svg xmlns="http://www.w3.org/2000/svg" width="57" height="105" viewBox="0 0 19 35">
  <defs>
    <style>
      .cls-1 {
        fill: #f98a01;
        fill-rule: evenodd;
      }
    </style>
  </defs>
  <path id="arrow_control_r" class="cls-1" d="M1786.53,831.267l-15.55-15.72a1.734,1.734,0,0,0-2.47,0,1.78,1.78,0,0,0,0,2.494l14.31,14.474-14.31,14.473a1.782,1.782,0,0,0,0,2.5,1.734,1.734,0,0,0,2.47,0l15.55-15.72A1.8,1.8,0,0,0,1786.53,831.267Z" transform="translate(-1768.03 -815.031)"/>
</svg>
