<svg xmlns="http://www.w3.org/2000/svg" width="51" height="51" viewBox="0 0 17 17">
  <defs>
    <style>
      .cls-1 {
        fill: #f98a01;
        fill-rule: evenodd;
      }
    </style>
  </defs>
  <path id="blog_hover" class="cls-1" d="M1633.21,149.563a1.148,1.148,0,0,0-1.62,0l-0.4.4-5.65,5.651v0l-0.18.178s-0.56.572-1.84,4.707l-0.03.087c-0.02.074-.05,0.15-0.07,0.226s-0.04.136-.06,0.2-0.04.116-.06,0.176c-0.04.135-.08,0.273-0.12,0.415a1.621,1.621,0,0,0-.06,1.272,1.669,1.669,0,0,0,1.27-.063c0.14-.042.27-0.083,0.41-0.123l0.18-.056,0.2-.059c0.08-.025.16-0.049,0.23-0.073a0.593,0.593,0,0,0,.07-0.022c3.94-1.225,4.65-1.8,4.7-1.852h0.01v0l0.18-.182,0.01,0.012,5.65-5.652h0l0.41-.4a1.153,1.153,0,0,0,0-1.615Zm-3.67,10.34a0.212,0.212,0,0,0-.02.012s-0.01.006-.01,0.009a0.176,0.176,0,0,0-.02.009s-0.01.006-.01,0.009a13.129,13.129,0,0,1-2.08.888l-0.51.178-1.9-1.9c0.06-.18.12-0.351,0.18-0.509a13.147,13.147,0,0,1,.88-2.083,0.013,0.013,0,0,0,.01-0.013,0.019,0.019,0,0,0,.01-0.018,0.012,0.012,0,0,0,.01-0.013,0.02,0.02,0,0,0,.01-0.018l0.14-.14,3.45,3.45Zm10.13-10.34-3.23-3.229a1.148,1.148,0,0,0-1.62,0l-0.8.807a1.135,1.135,0,0,0,0,1.615l3.22,3.229a1.148,1.148,0,0,0,1.62,0l0.81-.807A1.153,1.153,0,0,0,1639.67,149.563Z" transform="translate(-1623.03 -146)"/>
</svg>
