<svg xmlns="http://www.w3.org/2000/svg" width="90" height="90" viewBox="0 0 30 30">
  <defs>
    <style>
      .cls-1 {
        fill: #fff;
        fill-rule: evenodd;
      }
    </style>
  </defs>
  <path id="close_popup" class="cls-1" d="M1240.42,382.5a1.471,1.471,0,1,1,2.08-2.081l12.49,12.507,12.51-12.507a1.469,1.469,0,0,1,2.06,0,1.445,1.445,0,0,1,0,2.081l-12.49,12.487,12.49,12.507a1.445,1.445,0,0,1,0,2.081,1.469,1.469,0,0,1-2.06,0l-12.51-12.507-12.49,12.507a1.471,1.471,0,0,1-2.08-2.081l12.49-12.507Z" transform="translate(-1240.03 -380)"/>
</svg>
