<svg xmlns="http://www.w3.org/2000/svg" width="51" height="51" viewBox="0 0 17 17">
  <defs>
    <style>
      .cls-1 {
        fill: #f98a01;
        fill-rule: evenodd;
      }
    </style>
  </defs>
  <path id="settings_hover" class="cls-1" d="M1639.38,272.262l-1.69-.281a6.342,6.342,0,0,0-.53-1.425l1.08-1.337a0.743,0.743,0,0,0-.02-0.961l-0.67-.754a0.755,0.755,0,0,0-.96-0.136l-1.44.905a6.335,6.335,0,0,0-2.12-.959l-0.28-1.693a0.746,0.746,0,0,0-.74-0.621H1631a0.743,0.743,0,0,0-.73.621l-0.28,1.694a6.332,6.332,0,0,0-1.79.743l-1.37-.978a0.748,0.748,0,0,0-.96.079l-0.71.714a0.742,0.742,0,0,0-.08.958l0.98,1.372a6.459,6.459,0,0,0-.74,1.775l-1.7.284a0.74,0.74,0,0,0-.62.733V274a0.741,0.741,0,0,0,.62.734l1.7,0.284a6.343,6.343,0,0,0,.57,1.483l-1.08,1.329a0.756,0.756,0,0,0,.03.961l0.67,0.754a0.74,0.74,0,0,0,.95.136l1.46-.918a6.353,6.353,0,0,0,2.07.918l0.28,1.693a0.742,0.742,0,0,0,.73.621h1.01a0.745,0.745,0,0,0,.74-0.621l0.28-1.693a6.486,6.486,0,0,0,1.77-.731l1.42,1.019a0.744,0.744,0,0,0,.96-0.079l0.71-.713a0.73,0.73,0,0,0,.08-0.958l-1.01-1.425a6.156,6.156,0,0,0,.73-1.779l1.69-.281A0.741,0.741,0,0,0,1640,274V273A0.74,0.74,0,0,0,1639.38,272.262Zm-7.85,4.425a3.188,3.188,0,1,1,3.18-3.187A3.19,3.19,0,0,1,1631.53,276.687Z" transform="translate(-1623 -265)"/>
</svg>
