<?xml version="1.0" encoding="UTF-8" standalone="no"?>
<svg width="31px" height="31px" viewBox="0 0 31 31" version="1.1" xmlns="http://www.w3.org/2000/svg" xmlns:xlink="http://www.w3.org/1999/xlink">
    <!-- Generator: Sketch 40.3 (33839) - http://www.bohemiancoding.com/sketch -->
    <title>play_video</title>
    <desc>Created with Sketch.</desc>
    <defs></defs>
    <g id="Page-1" stroke="none" stroke-width="1" fill="none" fill-rule="evenodd">
        <g id="play_video" fill="#000000">
            <g id="play_video@3x" transform="translate(1.000000, 1.000000)">
                <path d="M19.95,14.413 L13.72,9.886 C13.4922071,9.72047303 13.1907562,9.69689802 12.94,9.825 C12.6862652,9.94979901 12.5267806,10.2092531 12.53,10.492 L12.53,19.543 C12.5256555,19.8263089 12.6854217,20.0866108 12.94,20.211 C13.0447528,20.2661769 13.1616117,20.2943605 13.28,20.293 C13.4383709,20.291816 13.5923367,20.2407274 13.72,20.147 L19.95,15.625 C20.1417358,15.4820186 20.2562565,15.2581491 20.26,15.019 C20.2579591,14.7794298 20.1430736,14.5548472 19.95,14.413 L19.95,14.413 Z M15,0.007 C6.72011586,0.0053441525 0.00639479706,6.71578339 0.00400226017,14.9956674 C0.00160972328,23.2755513 6.7114516,29.9898694 14.9913353,29.9929986 C23.271219,29.9961279 29.9861341,23.2868834 29.99,15.007 C29.9923878,11.0297537 28.4141749,7.2145733 25.6027745,4.40129739 C22.7913741,1.58802148 18.977247,0.00726459221 15,0.007 L15,0.007 Z M15,27.489 C9.94817556,27.489 5.39380508,24.445801 3.460649,19.7784851 C1.52749292,15.1111692 2.5962676,9.73891905 6.16858992,6.16688274 C9.74091224,2.59484644 15.1132479,1.5265019 19.780409,3.46003168 C24.4475701,5.39356145 27.4904045,9.94817558 27.49,15 C27.4907961,18.312706 26.1751129,21.4899462 23.8325822,23.8322894 C21.4900514,26.1746325 18.3127059,27.4900614 15,27.489 L15,27.489 Z" id="play_video"></path>
            </g>
        </g>
    </g>
</svg>